%YAML 1.1
%TAG !u! tag:unity3d.com,2011:
--- !u!21 &2100000
Material:
  serializedVersion: 6
  m_ObjectHideFlags: 0
  m_CorrespondingSourceObject: {fileID: 0}
  m_PrefabInstance: {fileID: 0}
  m_PrefabAsset: {fileID: 0}
  m_Name: Energy Wall 2
  m_Shader: {fileID: -6465566751694194690, guid: f41d0aea30b2ce04b87ffd7b4499509b,
    type: 3}
  m_ShaderKeywords: 
  m_LightmapFlags: 4
  m_EnableInstancingVariants: 0
  m_DoubleSidedGI: 0
  m_CustomRenderQueue: -1
  stringTagMap:
    MotionVector: User
  disabledShaderPasses:
  - MOTIONVECTORS
  m_SavedProperties:
    serializedVersion: 3
    m_TexEnvs: []
    m_Floats:
    - Boolean_B2FE1D14: 1
    - Vector1_13C7E6F3: 32.8
    - Vector1_184CE172: 3.21
    - Vector1_209B3461: 78.3
    - Vector1_2F3EA02B: 0.0203
    - Vector1_46402E44: 0.116
    - Vector1_669E3362: 0
    - Vector1_6C2BEC4A: 35
    - Vector1_91B9BDFB: 1
    - Vector1_BD452B67: 42
    - Vector1_C2BDE22B: 0.186
    - Vector1_EE9EE5A1: 0
    - Vector1_EFA084B: 0.1
    - _Dissolve: 0
    m_Colors:
    - Color_20FB1DDD: {r: 1024, g: 0, b: 0, a: 0}
    - Color_6AE6C6F0: {r: 0, g: 8.031373, b: 95.87451, a: 0}
    - _Color: {r: 4.5868363, g: 0, b: 17.531908, a: 0}
  m_BuildTextureStacks: []
