%YAML 1.1
%TAG !u! tag:unity3d.com,2011:
--- !u!1001 &2026899919199530430
PrefabInstance:
  m_ObjectHideFlags: 0
  serializedVersion: 2
  m_Modification:
    m_TransformParent: {fileID: 0}
    m_Modifications:
    - target: {fileID: 8054111089163599160, guid: a43b0120bdabe9248b66ec37425d694f,
        type: 3}
      propertyPath: m_SceneBindings.Array.size
      value: 10
      objectReference: {fileID: 0}
    - target: {fileID: 8054111089163599160, guid: a43b0120bdabe9248b66ec37425d694f,
        type: 3}
      propertyPath: m_SceneBindings.Array.data[1].value
      value: 
      objectReference: {fileID: 0}
    - target: {fileID: 8054111089163599160, guid: a43b0120bdabe9248b66ec37425d694f,
        type: 3}
      propertyPath: m_SceneBindings.Array.data[2].value
      value: 
      objectReference: {fileID: 0}
    - target: {fileID: 8054111089163599160, guid: a43b0120bdabe9248b66ec37425d694f,
        type: 3}
      propertyPath: m_SceneBindings.Array.data[3].value
      value: 
      objectReference: {fileID: 0}
    - target: {fileID: 8054111089163599160, guid: a43b0120bdabe9248b66ec37425d694f,
        type: 3}
      propertyPath: m_SceneBindings.Array.data[4].key
      value: 
      objectReference: {fileID: 5516522762581286637, guid: 9e6d722f5b688f54680240e172ddce6f,
        type: 2}
    - target: {fileID: 8054111089163599160, guid: a43b0120bdabe9248b66ec37425d694f,
        type: 3}
      propertyPath: m_SceneBindings.Array.data[4].value
      value: 
      objectReference: {fileID: 2094304920686152236}
    - target: {fileID: 8054111089163599160, guid: a43b0120bdabe9248b66ec37425d694f,
        type: 3}
      propertyPath: m_PlayableAsset
      value: 
      objectReference: {fileID: 11400000, guid: 8a6549e19261fc148a67baa47064ff85,
        type: 2}
    - target: {fileID: 8054111089163599160, guid: a43b0120bdabe9248b66ec37425d694f,
        type: 3}
      propertyPath: m_SceneBindings.Array.data[5].key
      value: 
      objectReference: {fileID: -416565992563297189, guid: 8a6549e19261fc148a67baa47064ff85,
        type: 2}
    - target: {fileID: 8054111089163599160, guid: a43b0120bdabe9248b66ec37425d694f,
        type: 3}
      propertyPath: m_SceneBindings.Array.data[6].key
      value: 
      objectReference: {fileID: -48115144059559630, guid: 8a6549e19261fc148a67baa47064ff85,
        type: 2}
    - target: {fileID: 8054111089163599160, guid: a43b0120bdabe9248b66ec37425d694f,
        type: 3}
      propertyPath: m_SceneBindings.Array.data[7].key
      value: 
      objectReference: {fileID: 1181730553763992557, guid: 8a6549e19261fc148a67baa47064ff85,
        type: 2}
    - target: {fileID: 8054111089163599160, guid: a43b0120bdabe9248b66ec37425d694f,
        type: 3}
      propertyPath: m_SceneBindings.Array.data[8].key
      value: 
      objectReference: {fileID: 1060327525486208329, guid: 8a6549e19261fc148a67baa47064ff85,
        type: 2}
    - target: {fileID: 8054111089163599160, guid: a43b0120bdabe9248b66ec37425d694f,
        type: 3}
      propertyPath: m_SceneBindings.Array.data[9].key
      value: 
      objectReference: {fileID: 5516522762581286637, guid: 8a6549e19261fc148a67baa47064ff85,
        type: 2}
    - target: {fileID: 8402439699459031157, guid: a43b0120bdabe9248b66ec37425d694f,
        type: 3}
      propertyPath: m_Name
      value: GraffitiBoitata
      objectReference: {fileID: 0}
    - target: {fileID: 8402439699459031162, guid: a43b0120bdabe9248b66ec37425d694f,
        type: 3}
      propertyPath: m_LocalPosition.x
      value: -37.34
      objectReference: {fileID: 0}
    - target: {fileID: 8402439699459031162, guid: a43b0120bdabe9248b66ec37425d694f,
        type: 3}
      propertyPath: m_LocalPosition.y
      value: 2.85
      objectReference: {fileID: 0}
    - target: {fileID: 8402439699459031162, guid: a43b0120bdabe9248b66ec37425d694f,
        type: 3}
      propertyPath: m_LocalPosition.z
      value: 49.16
      objectReference: {fileID: 0}
    - target: {fileID: 8402439699459031162, guid: a43b0120bdabe9248b66ec37425d694f,
        type: 3}
      propertyPath: m_LocalRotation.x
      value: 0
      objectReference: {fileID: 0}
    - target: {fileID: 8402439699459031162, guid: a43b0120bdabe9248b66ec37425d694f,
        type: 3}
      propertyPath: m_LocalRotation.y
      value: 0
      objectReference: {fileID: 0}
    - target: {fileID: 8402439699459031162, guid: a43b0120bdabe9248b66ec37425d694f,
        type: 3}
      propertyPath: m_LocalRotation.z
      value: 0
      objectReference: {fileID: 0}
    - target: {fileID: 8402439699459031162, guid: a43b0120bdabe9248b66ec37425d694f,
        type: 3}
      propertyPath: m_LocalRotation.w
      value: 1
      objectReference: {fileID: 0}
    - target: {fileID: 8402439699459031162, guid: a43b0120bdabe9248b66ec37425d694f,
        type: 3}
      propertyPath: m_RootOrder
      value: 0
      objectReference: {fileID: 0}
    - target: {fileID: 8402439699459031162, guid: a43b0120bdabe9248b66ec37425d694f,
        type: 3}
      propertyPath: m_LocalEulerAnglesHint.x
      value: 0
      objectReference: {fileID: 0}
    - target: {fileID: 8402439699459031162, guid: a43b0120bdabe9248b66ec37425d694f,
        type: 3}
      propertyPath: m_LocalEulerAnglesHint.y
      value: 0
      objectReference: {fileID: 0}
    - target: {fileID: 8402439699459031162, guid: a43b0120bdabe9248b66ec37425d694f,
        type: 3}
      propertyPath: m_LocalEulerAnglesHint.z
      value: 0
      objectReference: {fileID: 0}
    - target: {fileID: 8402439699494649100, guid: a43b0120bdabe9248b66ec37425d694f,
        type: 3}
      propertyPath: m_Material
      value: 
      objectReference: {fileID: 2100000, guid: d8cf52d97d5ed9441a81f98b14d012bd, type: 2}
    m_RemovedComponents: []
  m_SourcePrefab: {fileID: 100100000, guid: a43b0120bdabe9248b66ec37425d694f, type: 3}
--- !u!114 &2094304920686152236 stripped
MonoBehaviour:
  m_CorrespondingSourceObject: {fileID: 85719603686025106, guid: a43b0120bdabe9248b66ec37425d694f,
    type: 3}
  m_PrefabInstance: {fileID: 2026899919199530430}
  m_PrefabAsset: {fileID: 0}
  m_GameObject: {fileID: 0}
  m_Enabled: 1
  m_EditorHideFlags: 0
  m_Script: {fileID: 11500000, guid: e52de21a22b6dd44c9cc19f810c65059, type: 3}
  m_Name: 
  m_EditorClassIdentifier: 
