%YAML 1.1
%TAG !u! tag:unity3d.com,2011:
--- !u!1001 &5033990644102923860
PrefabInstance:
  m_ObjectHideFlags: 0
  serializedVersion: 2
  m_Modification:
    m_TransformParent: {fileID: 0}
    m_Modifications:
    - target: {fileID: 8054111089163599160, guid: a43b0120bdabe9248b66ec37425d694f,
        type: 3}
      propertyPath: m_SceneBindings.Array.size
      value: 10
      objectReference: {fileID: 0}
    - target: {fileID: 8054111089163599160, guid: a43b0120bdabe9248b66ec37425d694f,
        type: 3}
      propertyPath: m_SceneBindings.Array.data[1].value
      value: 
      objectReference: {fileID: 0}
    - target: {fileID: 8054111089163599160, guid: a43b0120bdabe9248b66ec37425d694f,
        type: 3}
      propertyPath: m_SceneBindings.Array.data[2].value
      value: 
      objectReference: {fileID: 0}
    - target: {fileID: 8054111089163599160, guid: a43b0120bdabe9248b66ec37425d694f,
        type: 3}
      propertyPath: m_SceneBindings.Array.data[3].value
      value: 
      objectReference: {fileID: 0}
    - target: {fileID: 8054111089163599160, guid: a43b0120bdabe9248b66ec37425d694f,
        type: 3}
      propertyPath: m_SceneBindings.Array.data[4].key
      value: 
      objectReference: {fileID: 5516522762581286637, guid: 9e6d722f5b688f54680240e172ddce6f,
        type: 2}
    - target: {fileID: 8054111089163599160, guid: a43b0120bdabe9248b66ec37425d694f,
        type: 3}
      propertyPath: m_SceneBindings.Array.data[4].value
      value: 
      objectReference: {fileID: 4966584559226003910}
    - target: {fileID: 8054111089163599160, guid: a43b0120bdabe9248b66ec37425d694f,
        type: 3}
      propertyPath: m_PlayableAsset
      value: 
      objectReference: {fileID: 11400000, guid: 36433b0ecfaa85a43a1ac33d4c88727f,
        type: 2}
    - target: {fileID: 8054111089163599160, guid: a43b0120bdabe9248b66ec37425d694f,
        type: 3}
      propertyPath: m_SceneBindings.Array.data[5].key
      value: 
      objectReference: {fileID: -416565992563297189, guid: 36433b0ecfaa85a43a1ac33d4c88727f,
        type: 2}
    - target: {fileID: 8054111089163599160, guid: a43b0120bdabe9248b66ec37425d694f,
        type: 3}
      propertyPath: m_SceneBindings.Array.data[6].key
      value: 
      objectReference: {fileID: -48115144059559630, guid: 36433b0ecfaa85a43a1ac33d4c88727f,
        type: 2}
    - target: {fileID: 8054111089163599160, guid: a43b0120bdabe9248b66ec37425d694f,
        type: 3}
      propertyPath: m_SceneBindings.Array.data[7].key
      value: 
      objectReference: {fileID: 1181730553763992557, guid: 36433b0ecfaa85a43a1ac33d4c88727f,
        type: 2}
    - target: {fileID: 8054111089163599160, guid: a43b0120bdabe9248b66ec37425d694f,
        type: 3}
      propertyPath: m_SceneBindings.Array.data[8].key
      value: 
      objectReference: {fileID: 1060327525486208329, guid: 36433b0ecfaa85a43a1ac33d4c88727f,
        type: 2}
    - target: {fileID: 8054111089163599160, guid: a43b0120bdabe9248b66ec37425d694f,
        type: 3}
      propertyPath: m_SceneBindings.Array.data[9].key
      value: 
      objectReference: {fileID: 5516522762581286637, guid: 36433b0ecfaa85a43a1ac33d4c88727f,
        type: 2}
    - target: {fileID: 8402439698120176661, guid: a43b0120bdabe9248b66ec37425d694f,
        type: 3}
      propertyPath: m_Lens.FieldOfView
      value: 69.493576
      objectReference: {fileID: 0}
    - target: {fileID: 8402439699459031157, guid: a43b0120bdabe9248b66ec37425d694f,
        type: 3}
      propertyPath: m_Name
      value: GraffitiUrubu
      objectReference: {fileID: 0}
    - target: {fileID: 8402439699459031162, guid: a43b0120bdabe9248b66ec37425d694f,
        type: 3}
      propertyPath: m_LocalPosition.x
      value: 1.1
      objectReference: {fileID: 0}
    - target: {fileID: 8402439699459031162, guid: a43b0120bdabe9248b66ec37425d694f,
        type: 3}
      propertyPath: m_LocalPosition.y
      value: 2.85
      objectReference: {fileID: 0}
    - target: {fileID: 8402439699459031162, guid: a43b0120bdabe9248b66ec37425d694f,
        type: 3}
      propertyPath: m_LocalPosition.z
      value: 49.16
      objectReference: {fileID: 0}
    - target: {fileID: 8402439699459031162, guid: a43b0120bdabe9248b66ec37425d694f,
        type: 3}
      propertyPath: m_LocalRotation.x
      value: 0
      objectReference: {fileID: 0}
    - target: {fileID: 8402439699459031162, guid: a43b0120bdabe9248b66ec37425d694f,
        type: 3}
      propertyPath: m_LocalRotation.y
      value: 0
      objectReference: {fileID: 0}
    - target: {fileID: 8402439699459031162, guid: a43b0120bdabe9248b66ec37425d694f,
        type: 3}
      propertyPath: m_LocalRotation.z
      value: 0
      objectReference: {fileID: 0}
    - target: {fileID: 8402439699459031162, guid: a43b0120bdabe9248b66ec37425d694f,
        type: 3}
      propertyPath: m_LocalRotation.w
      value: 1
      objectReference: {fileID: 0}
    - target: {fileID: 8402439699459031162, guid: a43b0120bdabe9248b66ec37425d694f,
        type: 3}
      propertyPath: m_RootOrder
      value: 0
      objectReference: {fileID: 0}
    - target: {fileID: 8402439699459031162, guid: a43b0120bdabe9248b66ec37425d694f,
        type: 3}
      propertyPath: m_LocalEulerAnglesHint.x
      value: 0
      objectReference: {fileID: 0}
    - target: {fileID: 8402439699459031162, guid: a43b0120bdabe9248b66ec37425d694f,
        type: 3}
      propertyPath: m_LocalEulerAnglesHint.y
      value: 0
      objectReference: {fileID: 0}
    - target: {fileID: 8402439699459031162, guid: a43b0120bdabe9248b66ec37425d694f,
        type: 3}
      propertyPath: m_LocalEulerAnglesHint.z
      value: 0
      objectReference: {fileID: 0}
    - target: {fileID: 8402439699494649100, guid: a43b0120bdabe9248b66ec37425d694f,
        type: 3}
      propertyPath: m_Material
      value: 
      objectReference: {fileID: 2100000, guid: b29e0954a5efcf54e928885541234019, type: 2}
    m_RemovedComponents: []
  m_SourcePrefab: {fileID: 100100000, guid: a43b0120bdabe9248b66ec37425d694f, type: 3}
--- !u!114 &4966584559226003910 stripped
MonoBehaviour:
  m_CorrespondingSourceObject: {fileID: 85719603686025106, guid: a43b0120bdabe9248b66ec37425d694f,
    type: 3}
  m_PrefabInstance: {fileID: 5033990644102923860}
  m_PrefabAsset: {fileID: 0}
  m_GameObject: {fileID: 0}
  m_Enabled: 1
  m_EditorHideFlags: 0
  m_Script: {fileID: 11500000, guid: e52de21a22b6dd44c9cc19f810c65059, type: 3}
  m_Name: 
  m_EditorClassIdentifier: 
