%YAML 1.1
%TAG !u! tag:unity3d.com,2011:
--- !u!221 &22100000
AnimatorOverrideController:
  m_ObjectHideFlags: 0
  m_CorrespondingSourceObject: {fileID: 0}
  m_PrefabInstance: {fileID: 0}
  m_PrefabAsset: {fileID: 0}
  m_Name: Tutorial Panel
  m_Controller: {fileID: 9100000, guid: 2433eddd22ffd374f907b91b0ce94b97, type: 2}
  m_Clips:
  - m_OriginalClip: {fileID: 7400000, guid: 4a240bb08265cf243aacb7cae89cc7e2, type: 2}
    m_OverrideClip: {fileID: 7400000, guid: 73c1ee18fcbd9774b9a89818ebb003d1, type: 2}
  - m_OriginalClip: {fileID: 7400000, guid: fdd1abb5944e772408898efdc57ef086, type: 2}
    m_OverrideClip: {fileID: 7400000, guid: b8940c4e19aadda47b4fa03225e41780, type: 2}
